[{
	"count": 24,
	"items": [{
		"datetime": "2017-01-09T15:00:00+00:00",
		"mesh": "533935961",
		"lon": 139.7,
		"lat": 35.6583333,
		"total": 4144,
		"male_15": 76,
		"male_20": 734,
		"male_30": 718,
		"male_40": 498,
		"male_50": 286,
		"male_60": 213,
		"male_70": 74,
		"female_15": 84,
		"female_20": 481,
		"female_30": 333,
		"female_40": 260,
		"female_50": 167,
		"female_60": 131,
		"female_70": 89
	}, {
		"datetime": "2017-01-09T16:00:00+00:00",
		"mesh": "533935961",
		"lon": 139.7,
		"lat": 35.6583333,
		"total": 3351,
		"male_15": 54,
		"male_20": 450,
		"male_30": 591,
		"male_40": 472,
		"male_50": 271,
		"male_60": 208,
		"male_70": 87,
		"female_15": 57,
		"female_20": 294,
		"female_30": 259,
		"female_40": 231,
		"female_50": 144,
		"female_60": 133,
		"female_70": 100
	}, {
		"datetime": "2017-01-09T17:00:00+00:00",
		"mesh": "533935961",
		"lon": 139.7,
		"lat": 35.6583333,
		"total": 3218,
		"male_15": 59,
		"male_20": 459,
		"male_30": 565,
		"male_40": 387,
		"male_50": 272,
		"male_60": 197,
		"male_70": 92,
		"female_15": 56,
		"female_20": 292,
		"female_30": 262,
		"female_40": 221,
		"female_50": 145,
		"female_60": 116,
		"female_70": 95
	}, {
		"datetime": "2017-01-09T18:00:00+00:00",
		"mesh": "533935961",
		"lon": 139.7,
		"lat": 35.6583333,
		"total": 3249,
		"male_15": 62,
		"male_20": 419,
		"male_30": 555,
		"male_40": 448,
		"male_50": 283,
		"male_60": 208,
		"male_70": 81,
		"female_15": 60,
		"female_20": 292,
		"female_30": 252,
		"female_40": 237,
		"female_50": 146,
		"female_60": 117,
		"female_70": 89
	}, {
		"datetime": "2017-01-09T19:00:00+00:00",
		"mesh": "533935961",
		"lon": 139.7,
		"lat": 35.6583333,
		"total": 3055,
		"male_15": 46,
		"male_20": 451,
		"male_30": 499,
		"male_40": 400,
		"male_50": 246,
		"male_60": 171,
		"male_70": 73,
		"female_15": 54,
		"female_20": 293,
		"female_30": 253,
		"female_40": 221,
		"female_50": 137,
		"female_60": 114,
		"female_70": 97
	}, {
		"datetime": "2017-01-09T20:00:00+00:00",
		"mesh": "533935961",
		"lon": 139.7,
		"lat": 35.6583333,
		"total": 3144,
		"male_15": 48,
		"male_20": 458,
		"male_30": 488,
		"male_40": 406,
		"male_50": 285,
		"male_60": 180,
		"male_70": 74,
		"female_15": 53,
		"female_20": 286,
		"female_30": 248,
		"female_40": 222,
		"female_50": 139,
		"female_60": 140,
		"female_70": 117
	}, {
		"datetime": "2017-01-09T21:00:00+00:00",
		"mesh": "533935961",
		"lon": 139.7,
		"lat": 35.6583333,
		"total": 4234,
		"male_15": 61,
		"male_20": 447,
		"male_30": 657,
		"male_40": 653,
		"male_50": 503,
		"male_60": 329,
		"male_70": 113,
		"female_15": 57,
		"female_20": 281,
		"female_30": 304,
		"female_40": 281,
		"female_50": 230,
		"female_60": 185,
		"female_70": 133
	}, {
		"datetime": "2017-01-09T22:00:00+00:00",
		"mesh": "533935961",
		"lon": 139.7,
		"lat": 35.6583333,
		"total": 8914,
		"male_15": 130,
		"male_20": 838,
		"male_30": 1378,
		"male_40": 1586,
		"male_50": 1187,
		"male_60": 692,
		"male_70": 183,
		"female_15": 114,
		"female_20": 625,
		"female_30": 654,
		"female_40": 635,
		"female_50": 430,
		"female_60": 317,
		"female_70": 145
	}, {
		"datetime": "2017-01-09T23:00:00+00:00",
		"mesh": "533935961",
		"lon": 139.7,
		"lat": 35.6583333,
		"total": 16420,
		"male_15": 160,
		"male_20": 1608,
		"male_30": 2612,
		"male_40": 2515,
		"male_50": 1747,
		"male_60": 969,
		"male_70": 236,
		"female_15": 199,
		"female_20": 1568,
		"female_30": 1675,
		"female_40": 1540,
		"female_50": 955,
		"female_60": 448,
		"female_70": 188
	}, {
		"datetime": "2017-01-10T00:00:00+00:00",
		"mesh": "533935961",
		"lon": 139.7,
		"lat": 35.6583333,
		"total": 22302,
		"male_15": 212,
		"male_20": 2163,
		"male_30": 3635,
		"male_40": 2963,
		"male_50": 2036,
		"male_60": 1251,
		"male_70": 351,
		"female_15": 272,
		"female_20": 2509,
		"female_30": 2684,
		"female_40": 2036,
		"female_50": 1324,
		"female_60": 612,
		"female_70": 254
	}, {
		"datetime": "2017-01-10T01:00:00+00:00",
		"mesh": "533935961",
		"lon": 139.7,
		"lat": 35.6583333,
		"total": 25304,
		"male_15": 248,
		"male_20": 2539,
		"male_30": 3976,
		"male_40": 3191,
		"male_50": 2141,
		"male_60": 1428,
		"male_70": 398,
		"female_15": 334,
		"female_20": 2930,
		"female_30": 3007,
		"female_40": 2377,
		"female_50": 1482,
		"female_60": 843,
		"female_70": 410
	}, {
		"datetime": "2017-01-10T02:00:00+00:00",
		"mesh": "533935961",
		"lon": 139.7,
		"lat": 35.6583333,
		"total": 27944,
		"male_15": 250,
		"male_20": 2693,
		"male_30": 4176,
		"male_40": 3374,
		"male_50": 2312,
		"male_60": 1503,
		"male_70": 508,
		"female_15": 361,
		"female_20": 3438,
		"female_30": 3327,
		"female_40": 2603,
		"female_50": 1785,
		"female_60": 1074,
		"female_70": 540
	}, {
		"datetime": "2017-01-10T03:00:00+00:00",
		"mesh": "533935961",
		"lon": 139.7,
		"lat": 35.6583333,
		"total": 30622,
		"male_15": 309,
		"male_20": 3188,
		"male_30": 4604,
		"male_40": 3610,
		"male_50": 2443,
		"male_60": 1593,
		"male_70": 519,
		"female_15": 428,
		"female_20": 3902,
		"female_30": 3596,
		"female_40": 2804,
		"female_50": 1885,
		"female_60": 1114,
		"female_70": 627
	}, {
		"datetime": "2017-01-10T04:00:00+00:00",
		"mesh": "533935961",
		"lon": 139.7,
		"lat": 35.6583333,
		"total": 32083,
		"male_15": 318,
		"male_20": 3248,
		"male_30": 4749,
		"male_40": 3748,
		"male_50": 2447,
		"male_60": 1672,
		"male_70": 554,
		"female_15": 494,
		"female_20": 4295,
		"female_30": 3700,
		"female_40": 2941,
		"female_50": 1949,
		"female_60": 1242,
		"female_70": 726
	}, {
		"datetime": "2017-01-10T05:00:00+00:00",
		"mesh": "533935961",
		"lon": 139.7,
		"lat": 35.6583333,
		"total": 32687,
		"male_15": 343,
		"male_20": 3430,
		"male_30": 4765,
		"male_40": 3752,
		"male_50": 2402,
		"male_60": 1630,
		"male_70": 631,
		"female_15": 581,
		"female_20": 4471,
		"female_30": 3760,
		"female_40": 2903,
		"female_50": 2035,
		"female_60": 1280,
		"female_70": 704
	}, {
		"datetime": "2017-01-10T06:00:00+00:00",
		"mesh": "533935961",
		"lon": 139.7,
		"lat": 35.6583333,
		"total": 33049,
		"male_15": 361,
		"male_20": 3590,
		"male_30": 4855,
		"male_40": 3874,
		"male_50": 2445,
		"male_60": 1631,
		"male_70": 540,
		"female_15": 610,
		"female_20": 4660,
		"female_30": 3854,
		"female_40": 2881,
		"female_50": 2011,
		"female_60": 1155,
		"female_70": 582
	}, {
		"datetime": "2017-01-10T07:00:00+00:00",
		"mesh": "533935961",
		"lon": 139.7,
		"lat": 35.6583333,
		"total": 33531,
		"male_15": 460,
		"male_20": 3744,
		"male_30": 4932,
		"male_40": 3852,
		"male_50": 2432,
		"male_60": 1531,
		"male_70": 536,
		"female_15": 682,
		"female_20": 4704,
		"female_30": 3933,
		"female_40": 2990,
		"female_50": 1981,
		"female_60": 1171,
		"female_70": 583
	}, {
		"datetime": "2017-01-10T08:00:00+00:00",
		"mesh": "533935961",
		"lon": 139.7,
		"lat": 35.6583333,
		"total": 33450,
		"male_15": 544,
		"male_20": 3997,
		"male_30": 4851,
		"male_40": 3796,
		"male_50": 2357,
		"male_60": 1479,
		"male_70": 471,
		"female_15": 762,
		"female_20": 5080,
		"female_30": 3843,
		"female_40": 2797,
		"female_50": 1996,
		"female_60": 1019,
		"female_70": 458
	}, {
		"datetime": "2017-01-10T09:00:00+00:00",
		"mesh": "533935961",
		"lon": 139.7,
		"lat": 35.6583333,
		"total": 33461,
		"male_15": 465,
		"male_20": 4370,
		"male_30": 5085,
		"male_40": 3848,
		"male_50": 2402,
		"male_60": 1237,
		"male_70": 364,
		"female_15": 787,
		"female_20": 5401,
		"female_30": 3851,
		"female_40": 2757,
		"female_50": 1766,
		"female_60": 810,
		"female_70": 318
	}, {
		"datetime": "2017-01-10T10:00:00+00:00",
		"mesh": "533935961",
		"lon": 139.7,
		"lat": 35.6583333,
		"total": 30075,
		"male_15": 435,
		"male_20": 4209,
		"male_30": 4962,
		"male_40": 3557,
		"male_50": 2092,
		"male_60": 967,
		"male_70": 290,
		"female_15": 630,
		"female_20": 4905,
		"female_30": 3340,
		"female_40": 2284,
		"female_50": 1471,
		"female_60": 621,
		"female_70": 312
	}, {
		"datetime": "2017-01-10T11:00:00+00:00",
		"mesh": "533935961",
		"lon": 139.7,
		"lat": 35.6583333,
		"total": 24232,
		"male_15": 278,
		"male_20": 3649,
		"male_30": 4294,
		"male_40": 2880,
		"male_50": 1598,
		"male_60": 690,
		"male_70": 220,
		"female_15": 443,
		"female_20": 4088,
		"female_30": 2658,
		"female_40": 1636,
		"female_50": 1090,
		"female_60": 469,
		"female_70": 239
	}, {
		"datetime": "2017-01-10T12:00:00+00:00",
		"mesh": "533935961",
		"lon": 139.7,
		"lat": 35.6583333,
		"total": 18764,
		"male_15": 255,
		"male_20": 3123,
		"male_30": 3402,
		"male_40": 2247,
		"male_50": 1198,
		"male_60": 569,
		"male_70": 187,
		"female_15": 333,
		"female_20": 3223,
		"female_30": 1859,
		"female_40": 1118,
		"female_50": 688,
		"female_60": 372,
		"female_70": 190
	}, {
		"datetime": "2017-01-10T13:00:00+00:00",
		"mesh": "533935961",
		"lon": 139.7,
		"lat": 35.6583333,
		"total": 13648,
		"male_15": 171,
		"male_20": 2541,
		"male_30": 2548,
		"male_40": 1677,
		"male_50": 794,
		"male_60": 409,
		"male_70": 163,
		"female_15": 209,
		"female_20": 2341,
		"female_30": 1334,
		"female_40": 702,
		"female_50": 415,
		"female_60": 219,
		"female_70": 125
	}, {
		"datetime": "2017-01-10T14:00:00+00:00",
		"mesh": "533935961",
		"lon": 139.7,
		"lat": 35.6583333,
		"total": 8859,
		"male_15": 132,
		"male_20": 1690,
		"male_30": 1729,
		"male_40": 1136,
		"male_50": 555,
		"male_60": 311,
		"male_70": 109,
		"female_15": 126,
		"female_20": 1360,
		"female_30": 745,
		"female_40": 459,
		"female_50": 237,
		"female_60": 169,
		"female_70": 101
	}],
	"next": "https://pflow.tellusxdp.com/api/v1/mobaku?cursor=eyJsYXN0X2l0ZW0iOnsiaWQiOjYwMTY2MCwiZGF0ZXRpbWUiOiIyMDE3LTAxLTEwVDE0OjAwOjAwWiIsIm1lc2giOiI1MzM5MzU5NjEifSwicXVlcnkiOnsibWVzaCI6IjUzMzkzNTk2MSIsImFmdGVyIjoiMjAxNy0wMS0xMFQwMDowMDowMCswOTowMCIsImJlZm9yZSI6IjIwMTctMDEtMTBUMjM6NTk6NTkrMDk6MDAiLCJtaW5fbGF0IjoiIiwibWF4X2xhdCI6IiIsIm1pbl9sb24iOiIiLCJtYXhfbG9uIjoiIn19"
}, {
	"count": 24,
	"items": [{
		"datetime": "2017-01-09T15:00:00+00:00",
		"mesh": "533935952",
		"lon": 139.69375,
		"lat": 35.6583333,
		"total": 7165,
		"male_15": 113,
		"male_20": 1501,
		"male_30": 1439,
		"male_40": 712,
		"male_50": 345,
		"male_60": 235,
		"male_70": 91,
		"female_15": 103,
		"female_20": 1243,
		"female_30": 499,
		"female_40": 333,
		"female_50": 219,
		"female_60": 191,
		"female_70": 141
	}, {
		"datetime": "2017-01-09T16:00:00+00:00",
		"mesh": "533935952",
		"lon": 139.69375,
		"lat": 35.6583333,
		"total": 6196,
		"male_15": 79,
		"male_20": 1296,
		"male_30": 1201,
		"male_40": 624,
		"male_50": 307,
		"male_60": 231,
		"male_70": 76,
		"female_15": 99,
		"female_20": 1012,
		"female_30": 438,
		"female_40": 335,
		"female_50": 198,
		"female_60": 164,
		"female_70": 136
	}, {
		"datetime": "2017-01-09T17:00:00+00:00",
		"mesh": "533935952",
		"lon": 139.69375,
		"lat": 35.6583333,
		"total": 5945,
		"male_15": 85,
		"male_20": 1213,
		"male_30": 1153,
		"male_40": 572,
		"male_50": 297,
		"male_60": 211,
		"male_70": 64,
		"female_15": 89,
		"female_20": 967,
		"female_30": 429,
		"female_40": 319,
		"female_50": 212,
		"female_60": 188,
		"female_70": 146
	}, {
		"datetime": "2017-01-09T18:00:00+00:00",
		"mesh": "533935952",
		"lon": 139.69375,
		"lat": 35.6583333,
		"total": 5576,
		"male_15": 75,
		"male_20": 1191,
		"male_30": 1021,
		"male_40": 521,
		"male_50": 259,
		"male_60": 201,
		"male_70": 88,
		"female_15": 77,
		"female_20": 888,
		"female_30": 454,
		"female_40": 290,
		"female_50": 213,
		"female_60": 181,
		"female_70": 117
	}, {
		"datetime": "2017-01-09T19:00:00+00:00",
		"mesh": "533935952",
		"lon": 139.69375,
		"lat": 35.6583333,
		"total": 5462,
		"male_15": 78,
		"male_20": 1114,
		"male_30": 1020,
		"male_40": 529,
		"male_50": 277,
		"male_60": 206,
		"male_70": 73,
		"female_15": 78,
		"female_20": 875,
		"female_30": 428,
		"female_40": 297,
		"female_50": 189,
		"female_60": 169,
		"female_70": 129
	}, {
		"datetime": "2017-01-09T20:00:00+00:00",
		"mesh": "533935952",
		"lon": 139.69375,
		"lat": 35.6583333,
		"total": 4746,
		"male_15": 59,
		"male_20": 828,
		"male_30": 894,
		"male_40": 509,
		"male_50": 295,
		"male_60": 204,
		"male_70": 84,
		"female_15": 61,
		"female_20": 664,
		"female_30": 385,
		"female_40": 269,
		"female_50": 183,
		"female_60": 189,
		"female_70": 122
	}, {
		"datetime": "2017-01-09T21:00:00+00:00",
		"mesh": "533935952",
		"lon": 139.69375,
		"lat": 35.6583333,
		"total": 4761,
		"male_15": 56,
		"male_20": 722,
		"male_30": 840,
		"male_40": 622,
		"male_50": 365,
		"male_60": 255,
		"male_70": 109,
		"female_15": 57,
		"female_20": 537,
		"female_30": 374,
		"female_40": 287,
		"female_50": 214,
		"female_60": 215,
		"female_70": 108
	}, {
		"datetime": "2017-01-09T22:00:00+00:00",
		"mesh": "533935952",
		"lon": 139.69375,
		"lat": 35.6583333,
		"total": 6889,
		"male_15": 94,
		"male_20": 812,
		"male_30": 1181,
		"male_40": 1068,
		"male_50": 672,
		"male_60": 433,
		"male_70": 145,
		"female_15": 105,
		"female_20": 671,
		"female_30": 533,
		"female_40": 465,
		"female_50": 324,
		"female_60": 242,
		"female_70": 144
	}, {
		"datetime": "2017-01-09T23:00:00+00:00",
		"mesh": "533935952",
		"lon": 139.69375,
		"lat": 35.6583333,
		"total": 10113,
		"male_15": 126,
		"male_20": 1130,
		"male_30": 1680,
		"male_40": 1431,
		"male_50": 895,
		"male_60": 540,
		"male_70": 196,
		"female_15": 140,
		"female_20": 1100,
		"female_30": 972,
		"female_40": 864,
		"female_50": 540,
		"female_60": 323,
		"female_70": 176
	}, {
		"datetime": "2017-01-10T00:00:00+00:00",
		"mesh": "533935952",
		"lon": 139.69375,
		"lat": 35.6583333,
		"total": 14361,
		"male_15": 149,
		"male_20": 1635,
		"male_30": 2338,
		"male_40": 1857,
		"male_50": 1120,
		"male_60": 709,
		"male_70": 284,
		"female_15": 142,
		"female_20": 1652,
		"female_30": 1681,
		"female_40": 1256,
		"female_50": 778,
		"female_60": 509,
		"female_70": 251
	}, {
		"datetime": "2017-01-10T01:00:00+00:00",
		"mesh": "533935952",
		"lon": 139.69375,
		"lat": 35.6583333,
		"total": 18718,
		"male_15": 196,
		"male_20": 2102,
		"male_30": 2917,
		"male_40": 2242,
		"male_50": 1363,
		"male_60": 926,
		"male_70": 352,
		"female_15": 216,
		"female_20": 2331,
		"female_30": 2139,
		"female_40": 1700,
		"female_50": 1154,
		"female_60": 715,
		"female_70": 365
	}, {
		"datetime": "2017-01-10T02:00:00+00:00",
		"mesh": "533935952",
		"lon": 139.69375,
		"lat": 35.6583333,
		"total": 22454,
		"male_15": 247,
		"male_20": 2510,
		"male_30": 3299,
		"male_40": 2593,
		"male_50": 1619,
		"male_60": 1205,
		"male_70": 425,
		"female_15": 284,
		"female_20": 2828,
		"female_30": 2533,
		"female_40": 1962,
		"female_50": 1454,
		"female_60": 983,
		"female_70": 512
	}, {
		"datetime": "2017-01-10T03:00:00+00:00",
		"mesh": "533935952",
		"lon": 139.69375,
		"lat": 35.6583333,
		"total": 26747,
		"male_15": 285,
		"male_20": 2921,
		"male_30": 3719,
		"male_40": 2921,
		"male_50": 2020,
		"male_60": 1369,
		"male_70": 587,
		"female_15": 364,
		"female_20": 3499,
		"female_30": 2962,
		"female_40": 2318,
		"female_50": 1776,
		"female_60": 1340,
		"female_70": 666
	}, {
		"datetime": "2017-01-10T04:00:00+00:00",
		"mesh": "533935952",
		"lon": 139.69375,
		"lat": 35.6583333,
		"total": 28815,
		"male_15": 282,
		"male_20": 3340,
		"male_30": 4024,
		"male_40": 3088,
		"male_50": 2099,
		"male_60": 1434,
		"male_70": 676,
		"female_15": 473,
		"female_20": 3913,
		"female_30": 3153,
		"female_40": 2444,
		"female_50": 1837,
		"female_60": 1323,
		"female_70": 729
	}, {
		"datetime": "2017-01-10T05:00:00+00:00",
		"mesh": "533935952",
		"lon": 139.69375,
		"lat": 35.6583333,
		"total": 29802,
		"male_15": 278,
		"male_20": 3524,
		"male_30": 4174,
		"male_40": 3134,
		"male_50": 2055,
		"male_60": 1452,
		"male_70": 601,
		"female_15": 475,
		"female_20": 4357,
		"female_30": 3322,
		"female_40": 2490,
		"female_50": 1902,
		"female_60": 1321,
		"female_70": 717
	}, {
		"datetime": "2017-01-10T06:00:00+00:00",
		"mesh": "533935952",
		"lon": 139.69375,
		"lat": 35.6583333,
		"total": 30446,
		"male_15": 345,
		"male_20": 3791,
		"male_30": 4313,
		"male_40": 3147,
		"male_50": 2038,
		"male_60": 1412,
		"male_70": 585,
		"female_15": 522,
		"female_20": 4804,
		"female_30": 3250,
		"female_40": 2545,
		"female_50": 1765,
		"female_60": 1224,
		"female_70": 705
	}, {
		"datetime": "2017-01-10T07:00:00+00:00",
		"mesh": "533935952",
		"lon": 139.69375,
		"lat": 35.6583333,
		"total": 31680,
		"male_15": 397,
		"male_20": 4170,
		"male_30": 4465,
		"male_40": 3271,
		"male_50": 1990,
		"male_60": 1378,
		"male_70": 575,
		"female_15": 610,
		"female_20": 5105,
		"female_30": 3288,
		"female_40": 2557,
		"female_50": 1951,
		"female_60": 1274,
		"female_70": 649
	}, {
		"datetime": "2017-01-10T08:00:00+00:00",
		"mesh": "533935952",
		"lon": 139.69375,
		"lat": 35.6583333,
		"total": 31770,
		"male_15": 418,
		"male_20": 4502,
		"male_30": 4544,
		"male_40": 3229,
		"male_50": 2063,
		"male_60": 1365,
		"male_70": 475,
		"female_15": 654,
		"female_20": 5478,
		"female_30": 3256,
		"female_40": 2373,
		"female_50": 1826,
		"female_60": 1084,
		"female_70": 503
	}, {
		"datetime": "2017-01-10T09:00:00+00:00",
		"mesh": "533935952",
		"lon": 139.69375,
		"lat": 35.6583333,
		"total": 33387,
		"male_15": 448,
		"male_20": 4801,
		"male_30": 4946,
		"male_40": 3574,
		"male_50": 2289,
		"male_60": 1391,
		"male_70": 403,
		"female_15": 721,
		"female_20": 6100,
		"female_30": 3231,
		"female_40": 2409,
		"female_50": 1709,
		"female_60": 949,
		"female_70": 416
	}, {
		"datetime": "2017-01-10T10:00:00+00:00",
		"mesh": "533935952",
		"lon": 139.69375,
		"lat": 35.6583333,
		"total": 33611,
		"male_15": 557,
		"male_20": 5261,
		"male_30": 5173,
		"male_40": 3740,
		"male_50": 2252,
		"male_60": 1207,
		"male_70": 355,
		"female_15": 842,
		"female_20": 6401,
		"female_30": 3080,
		"female_40": 2207,
		"female_50": 1450,
		"female_60": 730,
		"female_70": 356
	}, {
		"datetime": "2017-01-10T11:00:00+00:00",
		"mesh": "533935952",
		"lon": 139.69375,
		"lat": 35.6583333,
		"total": 30885,
		"male_15": 533,
		"male_20": 5268,
		"male_30": 5074,
		"male_40": 3477,
		"male_50": 2093,
		"male_60": 971,
		"male_70": 259,
		"female_15": 723,
		"female_20": 6041,
		"female_30": 2742,
		"female_40": 1713,
		"female_50": 1134,
		"female_60": 557,
		"female_70": 300
	}, {
		"datetime": "2017-01-10T12:00:00+00:00",
		"mesh": "533935952",
		"lon": 139.69375,
		"lat": 35.6583333,
		"total": 25725,
		"male_15": 460,
		"male_20": 4775,
		"male_30": 4518,
		"male_40": 2854,
		"male_50": 1606,
		"male_60": 749,
		"male_70": 236,
		"female_15": 601,
		"female_20": 4944,
		"female_30": 2204,
		"female_40": 1301,
		"female_50": 834,
		"female_60": 419,
		"female_70": 224
	}, {
		"datetime": "2017-01-10T13:00:00+00:00",
		"mesh": "533935952",
		"lon": 139.69375,
		"lat": 35.6583333,
		"total": 19012,
		"male_15": 411,
		"male_20": 3865,
		"male_30": 3513,
		"male_40": 2215,
		"male_50": 1026,
		"male_60": 521,
		"male_70": 147,
		"female_15": 353,
		"female_20": 3621,
		"female_30": 1508,
		"female_40": 852,
		"female_50": 529,
		"female_60": 291,
		"female_70": 160
	}, {
		"datetime": "2017-01-10T14:00:00+00:00",
		"mesh": "533935952",
		"lon": 139.69375,
		"lat": 35.6583333,
		"total": 12637,
		"male_15": 155,
		"male_20": 2600,
		"male_30": 2468,
		"male_40": 1454,
		"male_50": 686,
		"male_60": 345,
		"male_70": 107,
		"female_15": 180,
		"female_20": 2393,
		"female_30": 979,
		"female_40": 540,
		"female_50": 356,
		"female_60": 245,
		"female_70": 129
	}],
	"next": "https://pflow.tellusxdp.com/api/v1/mobaku?cursor=eyJsYXN0X2l0ZW0iOnsiaWQiOjYwMTY1NywiZGF0ZXRpbWUiOiIyMDE3LTAxLTEwVDE0OjAwOjAwWiIsIm1lc2giOiI1MzM5MzU5NTIifSwicXVlcnkiOnsibWVzaCI6IjUzMzkzNTk1MiIsImFmdGVyIjoiMjAxNy0wMS0xMFQwMDowMDowMCswOTowMCIsImJlZm9yZSI6IjIwMTctMDEtMTBUMjM6NTk6NTkrMDk6MDAiLCJtaW5fbGF0IjoiIiwibWF4X2xhdCI6IiIsIm1pbl9sb24iOiIiLCJtYXhfbG9uIjoiIn19"
}]
